﻿<?xml version="1.0" encoding="UTF-8"?>
<TestRun id="05fafc38-43cc-4bb2-b37c-ba422aca154a" name="devopsadmin@DevopsUI 2017-09-04 13:28:23" runUser="DevopsUI\devopsadmin" xmlns="http://microsoft.com/schemas/VisualStudio/TeamTest/2010">
  <TestSettings name="Default Test Settings" id="2ed234eb-cdfe-40f3-8ed7-506c51e3c68d">
    <Execution>
      <TestTypeSpecific />
      <AgentRule name="Execution Agents">
      </AgentRule>
    </Execution>
    <Deployment runDeploymentRoot="devopsadmin_DevopsUI 2017-09-04 13_28_23" />
    <Properties />
  </TestSettings>
  <Times creation="2017-09-04T13:28:23.8380730+00:00" queuing="2017-09-04T13:28:24.3550468+00:00" start="2017-09-04T13:28:24.4520887+00:00" finish="2017-09-04T13:28:29.2408604+00:00" />
  <ResultSummary outcome="Completed">
    <Counters total="1" executed="1" passed="1" error="0" failed="0" timeout="0" aborted="0" inconclusive="0" passedButRunAborted="0" notRunnable="0" notExecuted="0" disconnected="0" warning="0" completed="0" inProgress="0" pending="0" />
  </ResultSummary>
  <TestDefinitions>
    <UnitTest name="CodedUITestMethod1" storage="codeduitestproject2.dll" id="893e51f9-d8eb-1c15-2ce4-3fccdd36113a">
      <Execution id="93db3e54-23e1-42c9-bd39-e371b8a35e93" />
      <TestMethod codeBase="D:/MVC Unittest Sample/WebApplication1/CodedUITestProject2/bin/Debug/CodedUITestProject2.dll" adapterTypeName="Microsoft.VisualStudio.TestTools.TestTypes.Unit.UnitTestAdapter, Microsoft.VisualStudio.QualityTools.Tips.UnitTest.Adapter, Version=15.0.0.0, Culture=neutral, PublicKeyToken=b03f5f7f11d50a3a" className="CodedUITestProject2.CodedUITest1, CodedUITestProject2, Version=1.0.0.0, Culture=neutral, PublicKeyToken=null" name="CodedUITestMethod1" />
      <Extension>Microsoft.VisualStudio.TestTools.UITesting.CodedUITestAttribute, Microsoft.VisualStudio.QualityTools.CodedUITestFramework, Version=15.0.0.0, Culture=neutral, PublicKeyToken=b03f5f7f11d50a3a</Extension>
    </UnitTest>
  </TestDefinitions>
  <TestLists>
    <TestList name="Results Not in a List" id="8c84fa94-04c1-424b-9868-57a2d4851a1d" />
    <TestList name="All Loaded Results" id="19431567-8539-422a-85d7-44ee4e166bda" />
  </TestLists>
  <TestEntries>
    <TestEntry testId="893e51f9-d8eb-1c15-2ce4-3fccdd36113a" executionId="93db3e54-23e1-42c9-bd39-e371b8a35e93" testListId="8c84fa94-04c1-424b-9868-57a2d4851a1d" />
  </TestEntries>
  <Results>
    <UnitTestResult executionId="93db3e54-23e1-42c9-bd39-e371b8a35e93" testId="893e51f9-d8eb-1c15-2ce4-3fccdd36113a" testName="CodedUITestMethod1" computerName="DevopsUI" duration="00:00:03.0256203" startTime="2017-09-04T13:28:24.5420397+00:00" endTime="2017-09-04T13:28:28.3075475+00:00" testType="13cdc9d9-ddb5-4fa4-a97d-d965ccfc6d4b" outcome="Passed" testListId="8c84fa94-04c1-424b-9868-57a2d4851a1d" relativeResultsDirectory="93db3e54-23e1-42c9-bd39-e371b8a35e93">
    </UnitTestResult>
  </Results>
</TestRun>